{
  "page": 1,
  "total_results": 2775,
  "total_pages": 139,
  "results": [
    {
      "popularity": 20.054,
      "vote_count": 2760,
      "video": false,
      "poster_path": "\/QhbOzpYfBOwrRiuTu9otPk919R.jpg",
      "id": 5559,
      "adult": false,
      "backdrop_path": "\/2lBpQZevIJdL4vPrZ7Nnm7mrVlm.jpg",
      "original_language": "en",
      "original_title": "Bee Movie",
      "genre_ids": [
        12,
        16,
        35,
        10751
      ],
      "title": "Bee Movie",
      "vote_average": 5.9,
      "overview": "Barry B. Benson, a bee who has just graduated from college, is disillusioned at his lone career choice: making honey. On a special trip outside the hive, Barry's life is saved by Vanessa, a florist in New York City. As their relationship blossoms, he discovers humans actually eat honey, and subsequently decides to sue us.",
      "release_date": "2007-10-28"
    },
    {
      "popularity": 116.714,
      "vote_count": 1194,
      "video": false,
      "poster_path": "\/ePXuKdXZuJx8hHMNr2yM4jY2L7Z.jpg",
      "id": 559969,
      "adult": false,
      "backdrop_path": "\/ijiE9WoGSwSzM16zTxvUneJ8RXc.jpg",
      "original_language": "en",
      "original_title": "El Camino: A Breaking Bad Movie",
      "genre_ids": [
        80,
        18,
        53
      ],
      "title": "El Camino: A Breaking Bad Movie",
      "vote_average": 7.1,
      "overview": "In the wake of his dramatic escape from captivity, Jesse Pinkman must come to terms with his past in order to forge some kind of future.",
      "release_date": "2019-10-11"
    },
    {
      "popularity": 25.588,
      "vote_count": 3619,
      "video": false,
      "poster_path": "\/bvVmVFBVQLytK1H4TJTFdnhvf4T.jpg",
      "id": 4247,
      "adult": false,
      "backdrop_path": "\/s7dcAllZEVSrVIVMUVAUmwAxFmn.jpg",
      "original_language": "en",
      "original_title": "Scary Movie",
      "genre_ids": [
        35
      ],
      "title": "Scary Movie",
      "vote_average": 6.2,
      "overview": "Following on the heels of popular teen-scream horror movies, with uproarious comedy and biting satire. Marlon and Shawn Wayans, Shannon Elizabeth and Carmen Electra pitch in to skewer some of Hollywood's biggest blockbusters, including Scream, I Know What You Did Last Summer, The Matrix, American Pie and The Blair Witch Project.",
      "release_date": "2000-07-07"
    },
    {
      "popularity": 60.395,
      "vote_count": 217,
      "video": false,
      "poster_path": "\/ebe8hJRCwdflNQbUjRrfmqtUiNi.jpg",
      "id": 454640,
      "adult": false,
      "backdrop_path": "\/k7sE3loFwuU2mqf7FbZBeE3rjBa.jpg",
      "original_language": "en",
      "original_title": "The Angry Birds Movie 2",
      "genre_ids": [
        12,
        16,
        35,
        10751
      ],
      "title": "The Angry Birds Movie 2",
      "vote_average": 6.6,
      "overview": "Red, Chuck, Bomb and the rest of their feathered friends are surprised when a green pig suggests that they put aside their differences and unite to fight a common threat. Aggressive birds from an island covered in ice are planning to use an elaborate weapon to destroy the fowl and swine.",
      "release_date": "2019-08-14"
    },
    {
      "popularity": 27.663,
      "vote_count": 1605,
      "video": false,
      "poster_path": "\/f5pF4OYzh4wb1dYL2ARQNdqUsEZ.jpg",
      "id": 378236,
      "adult": false,
      "backdrop_path": "\/kTrgxhRSj2sun89bDbnGCPBiey6.jpg",
      "original_language": "en",
      "original_title": "The Emoji Movie",
      "genre_ids": [
        16,
        35,
        10751
      ],
      "title": "The Emoji Movie",
      "vote_average": 5.3,
      "overview": "Gene, a multi-expressional emoji, sets out on a journey to become a normal emoji.",
      "release_date": "2017-07-23"
    },
    {
      "popularity": 18.445,
      "vote_count": 5107,
      "video": false,
      "poster_path": "\/lMHbadNmznKs5vgBAkHxKGHulOa.jpg",
      "id": 137106,
      "adult": false,
      "backdrop_path": "\/wPRiV4TVpRCV2es81q0S1eRaUbm.jpg",
      "original_language": "en",
      "original_title": "The Lego Movie",
      "genre_ids": [
        12,
        16,
        35,
        14,
        10751
      ],
      "title": "The Lego Movie",
      "vote_average": 7.4,
      "overview": "An ordinary Lego mini-figure, mistakenly thought to be the extraordinary MasterBuilder, is recruited to join a quest to stop an evil Lego tyrant from gluing the universe together.",
      "release_date": "2014-02-07"
    },
    {
      "popularity": 13.931,
      "id": 87818,
      "video": false,
      "vote_count": 1419,
      "vote_average": 4.5,
      "title": "Movie 43",
      "release_date": "2013-01-25",
      "original_language": "en",
      "original_title": "Movie 43",
      "genre_ids": [
        35
      ],
      "backdrop_path": "\/eGWVsZhgEyNpQ327udKz5iCLHcF.jpg",
      "adult": false,
      "overview": "A series of interconnected short films follows a washed-up producer as he pitches insane story lines featuring some of the biggest stars in Hollywood.",
      "poster_path": "\/dv2rQ4mbFYkPTopmiOdv60DtHht.jpg"
    },
    {
      "popularity": 15.204,
      "vote_count": 111,
      "video": false,
      "poster_path": "\/fCQ13cqd02dop7Chkov0fPl4r3t.jpg",
      "id": 538225,
      "adult": false,
      "backdrop_path": "\/8LkIia2DSnQ1IRiBdgtPshenM8Z.jpg",
      "original_language": "en",
      "original_title": "Deadwood: The Movie",
      "genre_ids": [
        37,
        10770
      ],
      "title": "Deadwood: The Movie",
      "vote_average": 6.9,
      "overview": "Follow the 10-year reunion of the Deadwood camp to celebrate South Dakota's statehood. Former rivalries are reignited, alliances are tested and old wounds are reopened, as all are left to navigate the inevitable changes that modernity and time have wrought.",
      "release_date": "2019-05-31"
    },
    {
      "popularity": 15.249,
      "vote_count": 2477,
      "video": false,
      "poster_path": "\/tSGWhSResV2Cnqqr91TGKyZzf79.jpg",
      "id": 4248,
      "adult": false,
      "backdrop_path": "\/trZlq0eB8V8R4r7au8yX7myNESa.jpg",
      "original_language": "en",
      "original_title": "Scary Movie 2",
      "genre_ids": [
        35
      ],
      "title": "Scary Movie 2",
      "vote_average": 5.7,
      "overview": "While the original parodied slasher flicks like Scream, Keenen Ivory Wayans's sequel to Scary Movie takes comedic aim at haunted house movies. A group of students visit a mansion called \"Hell House,\" and murderous high jinks ensue.",
      "release_date": "2001-07-04"
    },
    {
      "popularity": 8.851,
      "vote_count": 479,
      "video": false,
      "poster_path": "\/rh4BHMaVZEIT8Btt77vDBd8x2p9.jpg",
      "id": 10073,
      "adult": false,
      "backdrop_path": "\/qGMoBgDdnEipzzYxfHCzqlcAvhf.jpg",
      "original_language": "en",
      "original_title": "Date Movie",
      "genre_ids": [
        35
      ],
      "title": "Date Movie",
      "vote_average": 3.8,
      "overview": "Spoof of romantic comedies which focuses on a man (Campbell), his crush (Hannigan), his parents (Coolidge, Willard), and her father (Griffin).",
      "release_date": "2006-02-17"
    },
    {
      "popularity": 20.677,
      "vote_count": 2031,
      "video": false,
      "poster_path": "\/76KMEI1ZNU9HEZ4pmHTwgwa0u6d.jpg",
      "id": 153518,
      "adult": false,
      "backdrop_path": "\/k15COpeexV5Ad0tuLjBW2jQFoOz.jpg",
      "original_language": "en",
      "original_title": "The Angry Birds Movie",
      "genre_ids": [
        12,
        16,
        35
      ],
      "title": "The Angry Birds Movie",
      "vote_average": 6,
      "overview": "An island populated entirely by happy, flightless birds or almost entirely. In this paradise, Red, a bird with a temper problem, speedy Chuck, and the volatile Bomb have always been outsiders. But when the island is visited by mysterious green piggies, it’s up to these unlikely outcasts to figure out what the pigs are up to.",
      "release_date": "2016-05-20"
    },
    {
      "popularity": 8.902,
      "vote_count": 226,
      "video": false,
      "poster_path": "\/e9yRYPCDIQV9npIOUUqeo1Thu4b.jpg",
      "id": 13682,
      "adult": false,
      "backdrop_path": "\/hzQ9VVlODgIDt6m9aQM2VoMtkcj.jpg",
      "original_language": "en",
      "original_title": "Pooh's Heffalump Movie",
      "genre_ids": [
        16,
        35,
        14,
        10751
      ],
      "title": "Pooh's Heffalump Movie",
      "vote_average": 6.6,
      "overview": "Who or what exactly is a Heffalump? The lovable residents of the Hundred Acre Wood -- Winnie the Pooh, Rabbit, Tigger, Eeyore, Kanga and the rest of the pack -- embark on a journey of discovery in search of the elusive Heffalump. But as is always the case, this unusual road trip opens their eyes to so much more than just the creature they're seeking.",
      "release_date": "2005-02-11"
    },
    {
      "popularity": 12.564,
      "vote_count": 4860,
      "video": false,
      "poster_path": "\/eCytnEriVur3rT47NWfkgPXD9qs.jpg",
      "id": 35,
      "adult": false,
      "backdrop_path": "\/tNpqx8PcFdgKgheUWmNqNF9RNGm.jpg",
      "original_language": "en",
      "original_title": "The Simpsons Movie",
      "genre_ids": [
        16,
        35,
        10751
      ],
      "title": "The Simpsons Movie",
      "vote_average": 6.9,
      "overview": "After Homer accidentally pollutes the town's water supply, Springfield is encased in a gigantic dome by the EPA and the Simpsons are declared fugitives.",
      "release_date": "2007-07-27"
    },
    {
      "popularity": 11.589,
      "vote_count": 1773,
      "video": false,
      "poster_path": "\/kBBVoyGTAZ4Yw3lYkCRfrRS2WTS.jpg",
      "id": 4257,
      "adult": false,
      "backdrop_path": "\/sGZJfQpK4RVnPOr2RE2bPJROZVn.jpg",
      "original_language": "en",
      "original_title": "Scary Movie 4",
      "genre_ids": [
        35
      ],
      "title": "Scary Movie 4",
      "vote_average": 5.4,
      "overview": "Cindy finds out the house she lives in is haunted by a little boy and goes on a quest to find out who killed him and why. Also, Alien \"Tr-iPods\" are invading the world and she has to uncover the secret in order to stop them.",
      "release_date": "2006-04-14"
    },
    {
      "popularity": 12.912,
      "id": 11918,
      "video": false,
      "vote_count": 927,
      "vote_average": 5.1,
      "title": "Superhero Movie",
      "release_date": "2008-03-27",
      "original_language": "en",
      "original_title": "Superhero Movie",
      "genre_ids": [
        28,
        35,
        878
      ],
      "backdrop_path": "\/yzSqANrSGGlwMe1QfmZYCmkhoMN.jpg",
      "adult": false,
      "overview": "The team behind Scary Movie takes on the comic book genre in this tale of Rick Riker, a nerdy teen imbued with superpowers by a radioactive dragonfly. And because every hero needs a nemesis, enter Lou Landers, aka the villainously goofy Hourglass.",
      "poster_path": "\/7B1u6dXrHM8UOXkSmweZvCMWmlV.jpg"
    },
    {
      "popularity": 10.199,
      "vote_count": 902,
      "video": false,
      "poster_path": "\/bycmMhO3iIoEDzP768sUjq2RV4T.jpg",
      "id": 15789,
      "adult": false,
      "backdrop_path": "\/ijDUMFmb34Fv7jBwxzhNc3lbVP3.jpg",
      "original_language": "en",
      "original_title": "A Goofy Movie",
      "genre_ids": [
        12,
        16,
        35,
        10749,
        10751
      ],
      "title": "A Goofy Movie",
      "vote_average": 6.9,
      "overview": "Though Goofy always means well, his amiable cluelessness and klutzy pratfalls regularly embarrass his awkward adolescent son, Max. When Max's lighthearted prank on his high-school principal finally gets his longtime crush, Roxanne, to notice him, he asks her on a date. Max's trouble at school convinces Goofy that he and the boy need to bond over a cross-country fishing trip like the one he took with his dad when he was Max's age, which throws a kink in his son's plans to impress Roxanne.",
      "release_date": "1995-04-07"
    },
    {
      "popularity": 10.184,
      "id": 10970,
      "video": false,
      "vote_count": 132,
      "vote_average": 6.6,
      "title": "Silent Movie",
      "release_date": "1976-06-17",
      "original_language": "en",
      "original_title": "Silent Movie",
      "genre_ids": [
        35
      ],
      "backdrop_path": "\/mA80Za8OS62eavKMMSLNYFIPtqH.jpg",
      "adult": false,
      "overview": "Aspiring filmmakers Mel Funn, Marty Eggs and Dom Bell go to a financially troubled studio with an idea for a silent movie. In an effort to make the movie more marketable, they attempt to recruit a number of big name stars to appear, while the studio's creditors attempt to thwart them. The film contains only one word of dialogue, spoken by an unlikely source.",
      "poster_path": "\/wajNlrVDkryVGTzDz9vZE6XKZnC.jpg"
    },
    {
      "popularity": 12.572,
      "vote_count": 2207,
      "video": false,
      "poster_path": "\/jlzEF7sTseYDB9H5dN29YFZt5Na.jpg",
      "id": 4256,
      "adult": false,
      "backdrop_path": "\/n5vmQsgANMuALE5qyU3pdSB1nd1.jpg",
      "original_language": "en",
      "original_title": "Scary Movie 3",
      "genre_ids": [
        35
      ],
      "title": "Scary Movie 3",
      "vote_average": 5.9,
      "overview": "In the third installment of the Scary Movie franchise, news anchorwoman Cindy Campbell has to investigate mysterious crop circles and killing video tapes, and help the President stop an alien invasion in the process.",
      "release_date": "2003-10-24"
    },
    {
      "popularity": 9.48,
      "vote_count": 173,
      "video": false,
      "poster_path": "\/gM4rWSXfPMeXorIKXNr5kuxLPkz.jpg",
      "id": 13691,
      "adult": false,
      "backdrop_path": "\/kJABbqsbe8jLQyDudjfiYBBSUvp.jpg",
      "original_language": "en",
      "original_title": "Piglet's Big Movie",
      "genre_ids": [
        16,
        10751
      ],
      "title": "Piglet's Big Movie",
      "vote_average": 6.5,
      "overview": "When the gang from the Hundred Acre Wood begin a honey harvest, young Piglet is excluded and told that he is too small to help. Feeling inferior, Piglet disappears and his pals Eeyore, Rabbit, Tigger, Roo and Winnie the Pooh must use Piglet's scrapbook as a map to find him. In the process they discover that this very small animal has been a big hero in a lot of ways.",
      "release_date": "2003-07-18"
    },
    {
      "popularity": 12.044,
      "vote_count": 1628,
      "video": false,
      "poster_path": "\/zYptQLRnePlv5rYg2kYOCZ3C31Q.jpg",
      "id": 4258,
      "adult": false,
      "backdrop_path": "\/jNoW4xqUljVyVQ1yrrhv9TGOWlM.jpg",
      "original_language": "en",
      "original_title": "Scary Movie 5",
      "genre_ids": [
        35
      ],
      "title": "Scary Movie 5",
      "vote_average": 4.7,
      "overview": "Home with their newly-formed family, happy parents Dan and Jody are haunted by sinister, paranormal activities. Determined to expel the insidious force, they install security cameras and discover their family is being stalked by an evil dead demon.",
      "release_date": "2013-04-12"
    }
  ]
}